<?xml version="1.0" encoding="UTF-8" standalone="no"?>
<!-- Created with Inkscape (http://www.inkscape.org/) -->

<svg
   width="210mm"
   height="297mm"
   viewBox="0 0 210 297"
   version="1.1"
   id="svg5"
   inkscape:version="1.1.2 (0a00cf5339, 2022-02-04)"
   sodipodi:docname="holland_shadowed_project_file.svg"
   xmlns:inkscape="http://www.inkscape.org/namespaces/inkscape"
   xmlns:sodipodi="http://sodipodi.sourceforge.net/DTD/sodipodi-0.dtd"
   xmlns="http://www.w3.org/2000/svg"
   xmlns:svg="http://www.w3.org/2000/svg">
  <sodipodi:namedview
     id="namedview7"
     pagecolor="#ffffff"
     bordercolor="#666666"
     borderopacity="1.0"
     inkscape:pageshadow="2"
     inkscape:pageopacity="0.0"
     inkscape:pagecheckerboard="0"
     inkscape:document-units="mm"
     showgrid="false"
     inkscape:zoom="1"
     inkscape:cx="56"
     inkscape:cy="481"
     inkscape:window-width="1920"
     inkscape:window-height="995"
     inkscape:window-x="0"
     inkscape:window-y="24"
     inkscape:window-maximized="1"
     inkscape:current-layer="layer1" />
  <defs
     id="defs2">
    <rect
       x="201.33896"
       y="479.98034"
       width="175.61871"
       height="46.081758"
       id="rect84801" />
    <rect
       x="67.359096"
       y="412.19156"
       width="676.78294"
       height="142.81253"
       id="rect6963" />
    <rect
       x="67.359096"
       y="412.19156"
       width="676.78294"
       height="142.81253"
       id="rect114507" />
    <rect
       x="201.33896"
       y="479.98034"
       width="175.61871"
       height="46.081758"
       id="rect114509" />
    <filter
       inkscape:collect="always"
       style="color-interpolation-filters:sRGB"
       id="filter115631"
       x="-0.011100787"
       y="-0.072490715"
       width="1.0222016"
       height="1.1449814">
      <feGaussianBlur
         inkscape:collect="always"
         stdDeviation="1.3608434"
         id="feGaussianBlur115633" />
    </filter>
    <filter
       inkscape:collect="always"
       style="color-interpolation-filters:sRGB"
       id="filter126615"
       x="-0.025555818"
       y="-0.18944397"
       width="1.0511116"
       height="1.3788879">
      <feGaussianBlur
         inkscape:collect="always"
         stdDeviation="1.3608434"
         id="feGaussianBlur126617" />
    </filter>
  </defs>
  <g
     inkscape:label="Layer 1"
     inkscape:groupmode="layer"
     id="layer1">
    <text
       xml:space="preserve"
       transform="matrix(0.26458333,0,0,0.26458333,5.4215844,-25.505896)"
       id="text6961"
       style="font-style:normal;font-variant:normal;font-weight:normal;font-stretch:normal;font-size:64px;line-height:1.25;font-family:Dyuthi;-inkscape-font-specification:'Dyuthi, Normal';font-variant-ligatures:normal;font-variant-caps:normal;font-variant-numeric:normal;font-variant-east-asian:normal;white-space:pre;shape-inside:url(#rect6963);opacity:0.19955;mix-blend-mode:normal;fill:#000000;fill-opacity:1;stroke:none;filter:url(#filter115631)"
       inkscape:export-filename="/home/odh/CODE/hollandvtwebsite/website/assets/img/holland_shadowed.png"
       inkscape:export-xdpi="105.07954"
       inkscape:export-ydpi="105.07954"><tspan
         x="67.359375"
         y="465.00391"
         id="tspan132317"><tspan
           style="opacity:1;stroke:#880088;stroke-opacity:0"
           id="tspan132315">Holland, VT</tspan></tspan></text>
    <text
       xml:space="preserve"
       transform="matrix(0.26458333,0,0,0.26458333,12.003256,-29.973057)"
       id="text84799"
       style="font-style:normal;font-variant:normal;font-weight:normal;font-stretch:normal;font-size:33.3333px;line-height:1.25;font-family:Dyuthi;-inkscape-font-specification:'Dyuthi, Normal';font-variant-ligatures:normal;font-variant-caps:normal;font-variant-numeric:normal;font-variant-east-asian:normal;white-space:pre;shape-inside:url(#rect84801);opacity:0.19955;mix-blend-mode:normal;fill:#000000;fill-opacity:1;stroke:none;filter:url(#filter126615)"
       inkscape:export-filename="/home/odh/CODE/hollandvtwebsite/website/assets/img/holland_shadowed.png"
       inkscape:export-xdpi="105.07954"
       inkscape:export-ydpi="105.07954"><tspan
         x="201.33984"
         y="507.48695"
         id="tspan132321"><tspan
           style="font-size:26.6667px"
           id="tspan132319">Estd in 1779 </tspan></tspan></text>
    <text
       xml:space="preserve"
       transform="matrix(0.26458333,0,0,0.26458333,5.5003101,15.150359)"
       id="text114501"
       style="font-style:normal;font-variant:normal;font-weight:normal;font-stretch:normal;font-size:64px;line-height:1.25;font-family:Dyuthi;-inkscape-font-specification:'Dyuthi, Normal';font-variant-ligatures:normal;font-variant-caps:normal;font-variant-numeric:normal;font-variant-east-asian:normal;white-space:pre;shape-inside:url(#rect114507);fill:#000000;fill-opacity:1;stroke:none"
       inkscape:export-filename="/home/odh/CODE/hollandvtwebsite/website/assets/img/holland_shadowed.png"
       inkscape:export-xdpi="105.07954"
       inkscape:export-ydpi="105.07954"><tspan
         x="67.359375"
         y="465.00391"
         id="tspan132325"><tspan
           style="stroke:#880088;stroke-opacity:0"
           id="tspan132323">Holland, VT</tspan></tspan></text>
    <text
       xml:space="preserve"
       transform="matrix(0.26458333,0,0,0.26458333,12.081982,10.683198)"
       id="text114505"
       style="font-style:normal;font-variant:normal;font-weight:normal;font-stretch:normal;font-size:33.3333px;line-height:1.25;font-family:Dyuthi;-inkscape-font-specification:'Dyuthi, Normal';font-variant-ligatures:normal;font-variant-caps:normal;font-variant-numeric:normal;font-variant-east-asian:normal;white-space:pre;shape-inside:url(#rect114509);fill:#000000;fill-opacity:1;stroke:none"
       inkscape:export-filename="/home/odh/CODE/hollandvtwebsite/website/assets/img/holland_shadowed.png"
       inkscape:export-xdpi="105.07954"
       inkscape:export-ydpi="105.07954"><tspan
         x="201.33984"
         y="507.48695"
         id="tspan132329"><tspan
           style="font-size:26.6667px"
           id="tspan132327">Estd in 1779 </tspan></tspan></text>
  </g>
</svg>
